{
  "extends": [
    "config:base",
    ":disableDependencyDashboard"
  ],
  "labels": [
    "type::maintenance"
  ],
  "packageRules": [
    {
      "automerge": false,
      "description": "Dependency updates",
      "matchUpdateTypes": [
        "patch",
        "pin",
        "digest",
        "minor",
        "major"
      ]
    }
  ]
}

